Natural Language Processing
…
The distribution shows a sharp peak of sentences less then 10 tokens long; this is fairly short, particularly when considering that punctuation is included in this count, and likely a product of the heavy use of dialogue in the text. A very small set of sentences are 60 or more tokens long. A close analysis of the original text reveals most of these to be part of a long deductive speech given by Sherlock Holmes towards the end of the story.

Lemmatization & Part of Speech Tagging

While tokenizing simply splits the raw character input into groups, lemmatization goes further by converting each token into a representative lemma. For example, go is the English lemma for words such as gone, going, and went. Nouns have their own process of lemmatization, such as converting all words into their singular form; for example dogs becomes dog and mice becomes mouse.

Notice that lemmatization changes depending on the part of speech. Therefore, much like tokenization and sentence splitting, the task of tagging tokens with parts of speech and lemmatization is often accomplished in tandem. To demonstrate how both work in the package, we again turn to our annotation of A Scandal in Bohemia. Pulling out the second sentence (and obscuring some of the columns so as not to overwhelm ourselves with the rest of the output) reveals the following data frame.

select(token, doc_id, sid, tid, token, lemma, xpos)

## # A tibble: 10,587 x 6
##    doc_id   sid tid   token    lemma    xpos 
##     <int> <int> <chr> <chr>    <chr>    <chr>
##  1      1     1 1     To       to       IN   
##  2      1     1 2     Sherlock Sherlock NNP  
##  3      1     1 3     Holmes   Holme    NNP  
##  4      1     1 4     she      she      PRP  
##  5      1     1 5     is       be       VBZ  
##  6      1     1 6     always   always   RB   
##  7      1     1 7     the      the      DT   
##  8      1     1 8     woman    woman    NN   
##  9      1     1 9     .        .        .    
## 10      1     2 1     I        I        PRP  
## #  with 10,577 more rows

The lemmatization process should seem straightforward. The verb heard is now represented by the infinitive hear, and the pronouns him and her are changed to their nominative forms he and she. Otherwise, the words remain unchanged in their lemma form. The part of speech codes, on the other hand, may at first seem confusing; for example there are three different codes for the verbs have, heard, and mention.

The part of speech codes come from the Penn Treebank Project, and contain many more categories compared to those typically taught in primary school grammar courses. For example VBN is the past participle form of a verb, whereas VB is the base form of a verb. A table from our annotation shows the entire set of possibilities.

token %>%
  count(xpos, sort = TRUE)

## # A tibble: 43 x 2
##    xpos      n
##  * <chr> <int>
##  1 NN     1193
##  2 IN     1129
##  3 PRP     907
##  4 DT      829
##  5 .       671
##  6 ,       612
##  7 VBD     541
##  8 RB      540
##  9 JJ      473
## 10 VB      375
## #  with 33 more rows
…
Nouns correspond to plural nouns (NNS) and singular (NN) nouns. There are also two plural proper noun codes (NNP and NNPS). The verb subtypes refer to various broad categories of verb conjugations.

With these universal part of speech codes, we can run some basic analysis on the sentences in our text. First, we count the number of nouns, pronouns, adjectives and verbs in each sentence using the function.

pos_df <- token %>%
  group_by(doc_id, sid, upos) %>%
  summarize(n = n()) %>%
  pivot_wider(names_from="upos", values_from=n, values_fill = list(n=0))
pos_df

## # A tibble: 671 x 19
## # Groups:   doc_id, sid [671]
##    doc_id   sid   ADP   ADV   AUX   DET  NOUN  PRON PROPN PUNCT   ADJ  VERB
##     <int> <int> <int> <int> <int> <int> <int> <int> <int> <int> <int> <int>
##  1      1     1     1     1     1     1     1     1     2     1     0     0
##  2      1     2     1     1     1     1     1     3     0     1     1     2
##  3      1     3     2     0     0     1     2     3     0     1     1     2
##  4      1     4     1     0     0     1     2     2     2     1     0     3
##  5      1     5     1     2     1     1     2     1     0     4     3     1
##  6      1     6     2     1     3     4     5     5     0     4     2     5
##  7      1     7     3     1     0     3     4     1     0     2     0     1
##  8      1     8     2     0     1     2     6     1     0     2     2     1
##  9      1     9     3     1     1     4     7     3     0     1     4     6
## 10      1    10     6     1     2     4     6     2     0     4     6     1
## #  with 661 more rows, and 7 more variables: CCONJ <int>, PART <int>,
## #   SCONJ <int>, NUM <int>, INTJ <int>, SYM <int>, X <int>
…
We see that verbs and nouns are well correlated and roughly appear in equal numbers for short sentences, whereas longer sentences tend to increase in terms of nouns faster than the number of verbs. Adjectives do not follow such a smooth relationship with nouns; regardless of the number of nouns they rarely occur more than 2 times in a sentence, despite occurring once in almost half of sentences with only one noun. One cause for both of these effects comes from the fact that multi-word nouns get double counted. For instance the name Dr.John H. Watson, accounts for \(4\) noun counts, but would not generally require more adjectives or verbs than when Watson is used alone.

Part of speech tagging also has the benefit of isolating function words, those with primarily grammatical usage such as prepositions and conjunctions, from those words with lexical meaning. Along with the use of lemmatization to collapse various word forms together, we can now gain potentially important contextual information from a text by identifying the most frequently used lemmas from a particular part of speech. The top \(25\) noun lemmas from our sample text for example identify some of the key characters and objects of interest in the story.

token %>%
  filter(upos %in% c("NOUN", "PROPN")) %>%
  count(lemma) %>%
  arrange(desc(n))

## # A tibble: 805 x 2
##    lemma          n
##    <chr>      <int>
##  1 Holmes        44
##  2 man           31
##  3 photograph    21
##  4 room          20
##  5 Majesty       18
##  6 hand          17
##  7 woman         17
##  8 house         16
##  9 matter        15
## 10 irene         14
## #  with 795 more rows

The third most common word, photograph, comes from the main objective presented in the story: the recovery of a scandalous photograph. References to the main characters are also present: Sherlock Holmes of course, Majesty being the royal client wishing to recover the photograph, and Irene Adler the subject of the photograph in question.

Knowing beforehand the text in question, we were able to extract the character names from a table of the most common nouns. Identifying facts we already know however is not particularly useful. We can get a bit closer by looking only at proper nouns:

token %>%
  filter(upos %in% c("PROPN")) %>%
  count(lemma) %>%
  arrange(desc(n))

## # A tibble: 115 x 2
##    lemma        n
##    <chr>    <int>
##  1 Holmes      28
##  2 irene       14
##  3 Adler       13
##  4 Briony      11
##  5 Lodge       11
##  6 King         9
##  7 Sherlock     9
##  8 Mr.          8
##  9 Bohemia      7
## 10 Norton       7
## #  with 105 more rows
…
As with the part of speech codes, the dependency type codes can be difficult to interpret without a code book. The one that we will make explicit use of here is nsubj, which identifies a noun phrase, which is syntactic subject of a clause. The latter typically relates a noun and its verb, but may link a noun to another noun (as above) or adjective in the presence of a copular verb.

The output from cleanNLP gives a compact representation of the dependency structure. It will be useful to include more information in the table to tie together each token with its source dependency. This is achieved through joining the tokens table with itself.

dep <- token %>%
  left_join(
    select(token, doc_id, sid, tid_source=tid, token, lemma, upos, xpos),
    suffix=c("", "_dep"),
    by=c("doc_id", "sid", "tid_source")
  )
dep

## # A tibble: 10,587 x 15
##    doc_id   sid tid   token token_with_ws lemma upos  xpos  feats
##  *  <int> <int> <chr> <chr> <chr>         <chr> <chr> <chr> <chr>
##  1      1     1 1     To    "\nTo "       to    ADP   IN    <NA> 
##  2      1     1 2     Sher "Sherlock "   Sher PROPN NNP   Numb
##  3      1     1 3     Holm "Holmes "     Holme PROPN NNP   Numb
##  4      1     1 4     she   "she "        she   PRON  PRP   Case
##  5      1     1 5     is    "is "         be    AUX   VBZ   Mood
##  6      1     1 6     alwa "always "     alwa ADV   RB    <NA> 
##  7      1     1 7     the   "the "        the   DET   DT    Defi
##  8      1     1 8     woman "woman"       woman NOUN  NN    Numb
##  9      1     1 9     .     ". "          .     PUNCT .     <NA> 
## 10      1     2 1     I     "I "          I     PRON  PRP   Case
## #  with 10,577 more rows, and 6 more variables: tid_source <chr>,
## #   relation <chr>, token_dep <chr>, lemma_dep <chr>, upos_dep <chr>,
## #   xpos_dep <chr>

Now, for example, we can see that the token I is the subject of the verb here. For an example of how dependency information can be used to understand a textual source, consider identifying the most frequently used verbs that take the action from the pronoun I used as the subject of a sentence.

dep %>%
  filter(token == "I", relation == "nsubj") %>%
  count(lemma_dep) %>%
  arrange(desc(n))

## # A tibble: 141 x 2
##    lemma_dep     n
##    <chr>     <int>
##  1 have         13
##  2 know         11
##  3 see          11
##  4 hear          9
##  5 find          7
##  6 think         7
##  7 call          5
##  8 tell          5
##  9 catch         4
## 10 make          4
## #  with 131 more rows
…
The task of automatically detecting and classifying elements of a text into broad semantic categories is known as named entity recognition (NER). To get NERs from cleanNLP, we need to use a different backend. Here, we will use the spacy backend. It is faster and more accurate, but does take a bit more work to install (see https://github.com/statsmaths/cleanNLP for more details). Here we initalize the backend and run it over our text:

cnlp_init_spacy()
text <- readLines("data/holmes/01_a_scandal_in_bohemia.txt")
anno <- cnlp_annotate(paste(text, collapse="\n"))

## Processed document 1 of 1

token <- anno$token
ner <- anno$entity

ner

## # A tibble: 292 x 6
##    doc_id   sid   tid tid_end entity_type entity         
##  *  <int> <int> <int>   <int> <chr>       <chr>          
##  1      1     1     3       4 PERSON      Sherlock Holmes
##  2      1     4    13      14 PERSON      Irene Adler    
##  3      1    11     6       6 CARDINAL    one            
##  4      1    11    17      18 PERSON      Irene Adler    
##  5      1    12     6       6 NORP        Holmes         
##  6      1    14    37      37 PERSON      Holmes         
##  7      1    14    48      48 NORP        Bohemian       
##  8      1    14    56      57 FAC         Baker Street   
##  9      1    14    68      68 DATE        week           
## 10      1    14    70      70 DATE        week           
## #  with 282 more rows
…
These can be helpful in determining the location or topic of a given story.

The named entity tag that will help the most with our goal of identifying the main characters in our short story, unsurprisingly, is the one indicating persons.

ner %>%
  filter(entity_type %in% c("PERSON")) %>%
  count(entity, sort = TRUE)

## # A tibble: 30 x 2
##    entity              n
##  * <chr>           <int>
##  1 Holmes             27
##  2 Irene Adler        11
##  3 Majesty            10
##  4 Sherlock Holmes     9
##  5 Watson              6
##  6 Godfrey Norton      4
##  7 Adler               2
##  8 Irene               2
##  9 Temple              2
## 10 Atkinson            1
## #  with 20 more rows
…
characters$full_name <- ""
for (j in seq_len(nrow(characters))) {
   these <- which(stri_detect(characters$entity, fixed=characters$entity[j]))
   these <- these[which.max(stri_length(characters$entity[these]))]
   characters$full_name[j] <- characters$entity[these]
}

characters$full_name <- stri_replace_all(characters$full_name, "", fixed="'")
characters %>%
  count(full_name, sort=TRUE)

## # A tibble: 25 x 2
##    full_name                 n
##  * <chr>                 <int>
##  1 Sherlock Holmes           3
##  2 Irene Adler               2
##  3 Irene Norton              2
##  4 John Hare                 2
##  5 Atkinson                  1
##  6 Briony Lodge              1
##  7 Clotilde Lothman          1
##  8 Continental Gazetteer     1
##  9 Crown Prince              1
## 10 Eglonitz                  1
## #  with 15 more rows
…
Now, we can identify character names using NER.

longest_word <- function(v) { v[which.max(stri_length(v))] }

ner_characters <- ner %>%
  filter(entity_type == "PERSON") %>%
  left_join(select(token, doc_id, sid, tid, token), by=c("doc_id"="doc_id", "sid"="sid", "tid_end"="tid")) %>%
  group_by(doc_id, token) %>%
  mutate(char_name = longest_word(entity)) %>%
  ungroup()

ner_characters %>%
  count(doc_id, char_name, sort=TRUE)

## # A tibble: 1,301 x 3
##    doc_id char_name           n
##  *  <int> <chr>           <int>
##  1     28 Sherlock Holmes    72
##  2     36 Sherlock Holmes    68
##  3     48 Sherlock Holmes    65
##  4     25 Sherlock Holmes    60
##  5     22 Sherlock Holmes    59
##  6     52 Sherlock Holmes    56
##  7     37 Sherlock Holmes    55
##  8     51 Sherlock Holmes    54
##  9     45 Sherlock Holmes    53
## 10     18 Sherlock Holmes    48
## #  with 1,291 more rows
…
## Processed document 1 of 1

anno$token

##  [1] "Aujourd"    "'hui"       ","          "maman"      "est"       
##  [6] "morte"      "."          "Ou"         "peut"       "-"         
## [11] "tre"       "hier"       ","          "je"         "ne"        
## [16] "sais"       "pas"        "."          "J'ai"       "reu"      
## [21] "un"         "tlgramme" "de"         "l'asile"    "."

Not terrible, but it incorrectly splits the single tokens Aujourdhui and peut-tre into two parts but does not split the two tokens Jai. The other parts of the NLP pipeline are even more effected. Look, for example at the lemmas and part of speech codes, which are almost all incorrect:

anno

## # A tibble: 25 x 11
##    doc_id   sid tid   token token_with_ws lemma upos  xpos  feats
##  *  <int> <int> <chr> <chr> <chr>         <chr> <chr> <chr> <chr>
##  1      1     1 1     Aujo "Aujourd"     Aujo PROPN NNP   Numb
##  2      1     1 2     'hui  "'hui"        'hui  PROPN NNP   Numb
##  3      1     1 3     ,     ", "          ,     PUNCT ,     <NA> 
##  4      1     1 4     maman "maman "      maman DET   DT    Defi
##  5      1     1 5     est   "est "        est   ADJ   JJ    Degr
##  6      1     1 6     morte "morte"       morte NOUN  NN    Numb
##  7      1     1 7     .     ". "          .     PUNCT .     <NA> 
##  8      1     2 1     Ou    "Ou "         Oough PRON  PRP   Case
##  9      1     2 2     peut  "peut"        peut  VERB  VBD   Mood
## 10      1     2 3     -     "-"           -     PUNCT ,     <NA> 
## #  with 15 more rows, and 2 more variables: tid_source <chr>,
## #   relation <chr>

If we instead load the French model, these issues are fixed:

cnlp_init_udpipe("french")
anno <- cnlp_annotate(camus_fr)$token

## Processed document 1 of 1

anno

## # A tibble: 24 x 11
##    doc_id   sid tid   token token_with_ws lemma upos  xpos  feats
##  *  <int> <int> <chr> <chr> <chr>         <chr> <chr> <chr> <chr>
##  1      1     1 1     Aujo "Aujourd'hui" aujo ADV   <NA>  <NA> 
##  2      1     1 2     ,     ", "          ,     PUNCT <NA>  <NA> 
##  3      1     1 3     maman "maman "      maman PROPN <NA>  <NA> 
##  4      1     1 4     est   "est "        tre  AUX   <NA>  Mood
##  5      1     1 5     morte "morte"       mour VERB  <NA>  Gend
##  6      1     1 6     .     ". "          .     PUNCT <NA>  <NA> 
##  7      1     2 1     Ou    "Ou "         ou    CCONJ <NA>  <NA> 
##  8      1     2 2     peut "peut-tre "  peut ADV   <NA>  <NA> 
##  9      1     2 3     hier  "hier"        hier  ADV   <NA>  <NA> 
## 10      1     2 4     ,     ", "          ,     PUNCT <NA>  <NA> 
## #  with 14 more rows, and 2 more variables: tid_source <chr>,
## #   relation <chr>
…
