Text Analysis
…
token <- anno$token

Looking at the \(50\) most frequently occurring noun lemmas from the encyclopedia entries of our philosophers reveals an unsurprising list. Terms such as philosophy, government, principle and theory appear a high number of times.

token %>%
  filter(upos == "NOUN") %>%
  count(lemma, sort=TRUE)

## # A tibble: 13,102 x 2
##    lemma          n
##  * <chr>      <int>
##  1 work        2619
##  2 time        1733
##  3 philosophy  1618
##  4 year        1541
##  5 life        1475
##  6 theory      1475
##  7 book        1315
##  8 idea        1201
##  9 world       1138
## 10 man          876
## #  with 13,092 more rows
…
For example, Machiavellis page has an importance score of \(5.1803149\) for power but only a score \(0.9676316\) for sense

With these importance scores now calculated, we can look at the lemmas with the highest score for each article. A sample from a few prominent pages shows that the tf-idf method has successfully picked up reasonable lemmas to represent some of the major article themes.

top_terms <- apply(tfidf, 1, function(v) paste(colnames(tfidf)[order(v, decreasing=TRUE)[1:5]], collapse="; "))
tibble(philosopher=names(top_terms), top_terms = as.character(top_terms))

## # A tibble: 179 x 2
##    philosopher                   top_terms                                 
##    <chr>                         <chr>                                     
##  1 16th_Acyutananda              spirituality; follower; saint; god; serva
##  2 16th_Giordano_Bruno           trial; universe; memory; sphere; novel    
##  3 16th_Jean_Bodin               monarchy; king; climate; manuscript; reas
##  4 16th_Niccolo_Machiavelli      republic; innovation; commentator; ruler;
##  5 17th_Algernon_Sidney          monarchy; king; discourse; trial; peace   
##  6 17th_Baruch_Spinoza           attribute; substance; emotion; ethic; kno
##  7 17th_Blaise_Pascal            inheritance; machine; pressure; sister; e
##  8 17th_Elisabeth_of_the_Palati correspondence; soul; sibling; body; visit
##  9 17th_Francis_Bacon            king; debt; office; favour; reform        
## 10 17th_Gottfried_Wilhelm_Leibn machine; logic; library; mathematic; perc
## #  with 169 more rows
…
